{
  "schemaVersion": 1,
  "id": "plant-based",
  "version": "${version}",

  "name": "Plant Based",
  "description": "Adds alternate, plant (or mineral) based recipes for important items that would otherwise use animals ingredients",
  "authors": [
    "Grant Moyer"
  ],
  "contact": {
    "homepage": "https://www.curseforge.com/minecraft/mc-mods/plant-based",
    "sources": "https://gitlab.com/GrantMoyer/mc-cruelty-free"
  },

  "license": "CC0",
  "icon": "plant-based.png",

  "environment": "*",
  "entrypoints": {
    "main": [
      "com.grantmoyer.mcplantbased.PlantBased"
    ]
  },
  "mixins": [
    "plant-based.mixins.json"
  ],

  "depends": {
    "fabricloader": ">=0.11.3",
    "fabric": "*",
    "minecraft": "1.18.x",
    "java": ">=17"
  },
  "suggests": {
    "another-mod": "*"
  }
}

