{
	"group": "minecraft:decorations",
	"type": "minecraft:crafting_shapeless",
	"ingredients": [
		{"item": "minecraft:exposed_cut_copper"},
		{"item": "minecraft:cocoa_beans"}
	],
	"result": {
		"item": "minecraft:waxed_exposed_cut_copper",
		"count": 1
	}
}
